------------------------------------------------------------------------------------------------------------------------

[2018-12-12 17:00:38 #1 store] 
Database 'C:\Users\uberVelocity\Documents\Java\Life\life-tracker\src\db\dbentries.odb' is opened by 16624@DESKTOP-AUVDP

[2018-12-12 17:00:38 #2 store] 
Configuration path: ?

[2018-12-12 17:00:38 #3 type.registry] 
New type model.Entry

------------------------------------------------------------------------------------------------------------------------

[2018-12-12 17:03:34 #1 store] 
Database 'C:\Users\uberVelocity\Documents\Java\Life\life-tracker\src\db\dbentries.odb' has been recovered (tr. 1-3)

[2018-12-12 17:03:34 #2 store] 
Database 'C:\Users\uberVelocity\Documents\Java\Life\life-tracker\src\db\dbentries.odb' is opened by 16652@DESKTOP-AUVDP

[2018-12-12 17:03:34 #3 store] 
Configuration path: ?

[2018-12-12 17:03:34 #4 type] 
Type model.Entry is not enhanced.

[2018-12-12 17:03:34 #5 type.registry] 
New type model.Entry$Type

[2018-12-12 17:03:34 #6 store] 
Database 'C:\Users\uberVelocity\Documents\Java\Life\life-tracker\src\db\dbentries.odb' is closed by 16652@DESKTOP-AUVDP

[2018-12-12 17:03:35 #7 store] 
Database 'C:\Users\uberVelocity\Documents\Java\Life\life-tracker\src\db\dbentries.odb' is opened by 16652@DESKTOP-AUVDP

[2018-12-12 17:03:35 #8 store] 
Configuration path: ?

[2018-12-12 17:03:35 #9 store] 
Database 'C:\Users\uberVelocity\Documents\Java\Life\life-tracker\src\db\dbentries.odb' is closed by 16652@DESKTOP-AUVDP

------------------------------------------------------------------------------------------------------------------------

[2018-12-12 17:04:12 #1 store] 
Database 'C:\Users\uberVelocity\Documents\Java\Life\life-tracker\src\db\dbentries.odb' is opened by 11912@DESKTOP-AUVDP

[2018-12-12 17:04:12 #2 store] 
Configuration path: ?

[2018-12-12 17:05:11 #3 store] 
Database 'C:\Users\uberVelocity\Documents\Java\Life\life-tracker\src\db\dbentries.odb' is closed by 11912@DESKTOP-AUVDP

